Hypothesentests mittels (Re-)Sampling
…
Bei decision handelt es sich um eine binäre/dichotome
Variable (auch: Dummy-Variable) mit zwei Ausprägungen: “promoted”
vs. “not”. Wir interessieren uns für die dokumentierten Beförderungen
(Option success = “promoted”)

library(infer)
promotions %>% 
  specify(formula = decision ~ gender, success = "promoted") 

## Response: decision (factor)
## Explanatory: gender (factor)
## # A tibble: 48 × 2
##    decision gender
##    <fct>    <fct> 
##  1 promoted male  
##  2 promoted male  
##  3 promoted male  
##  4 promoted male  
##  5 promoted male  
##  6 promoted male  
##  7 promoted male  
##  8 promoted male  
##  9 promoted male  
## 10 promoted male  
## # ℹ 38 more rows
…
independence für Tests im Zwei-Stichprobenfall

Im Beispiel handelt es sich um einen Zwei-Stichprobenfall.
Lebensläufe mit weiblichen vs. männlichen Namen. Entsprechend:

promotions %>% 
  specify(formula = decision ~ gender, success = "promoted") %>% 
  hypothesize(null = "independence") 

## Response: decision (factor)
## Explanatory: gender (factor)
## Null Hypothesis: independence
## # A tibble: 48 × 2
##    decision gender
##    <fct>    <fct> 
##  1 promoted male  
##  2 promoted male  
##  3 promoted male  
##  4 promoted male  
##  5 promoted male  
##  6 promoted male  
##  7 promoted male  
##  8 promoted male  
##  9 promoted male  
## 10 promoted male  
## # ℹ 38 more rows
…
Im Beispiel speichern wir das Ergebnis in einem
tibble-Objekt namens null_distribution:

null_distribution <- promotions %>% 
                          specify(formula = decision ~ gender, success = "promoted") %>% 
                          hypothesize(null = "independence") %>%
                          generate(reps = 1000, type = "permute") %>% 
                          calculate(stat = "diff in props", order = c("male", "female"))
null_distribution

## Response: decision (factor)
## Explanatory: gender (factor)
## Null Hypothesis: independence
## # A tibble: 1,000 × 2
##    replicate    stat
##        <int>   <dbl>
##  1         1 -0.125 
##  2         2 -0.0417
##  3         3  0.125 
##  4         4 -0.125 
##  5         5 -0.0417
##  6         6  0.0417
##  7         7  0.0417
##  8         8  0.0417
##  9         9 -0.125 
## 10        10 -0.0417
## # ℹ 990 more rows
…
