Grundidee Statistischer Tests
…
## Modell spezifizieren und Annahmen treffen -----
gss %>%
  specify(response = hours) %>% # betrachtete Variable(n) festlegen
  hypothesize(null = "point", mu = E_hours) #Annahme treffen

## Response: hours (numeric)
## Null Hypothesis: point
## # A tibble: 500 × 1
##    hours
##    <dbl>
##  1    50
##  2    31
##  3    40
##  4    40
##  5    40
##  6    53
##  7    32
##  8    20
##  9    40
## 10    40
## # ℹ 490 more rows

Die Befehlskette führt zur Ausgabe eines tibble-Objekts
mit 500 Zeilen und 1 Spalte bzw. eines Vektors mit Angaben zur
wöchentlichen Arbeitszeit. Diese stimmen mit den Daten aus dem GSS
exakt überein, wie folgende Abfrage zeigt:

#Ausgabe des vorigen Codes stimmt überein mit:
gss %>% 
    select(hours)

## # A tibble: 500 × 1
##    hours
##    <dbl>
##  1    50
##  2    31
##  3    40
##  4    40
##  5    40
##  6    53
##  7    32
##  8    20
##  9    40
## 10    40
## # ℹ 490 more rows
…
## Zufallsstichproben erzeugen -----
set.seed(23) # für reproduzierbare Ergebnisse
gss %>%
  specify(response = hours) %>%
  hypothesize(null = "point", mu = E_hours) %>%
  generate(reps = 1000, type = "bootstrap")  # Zufallsstichproben mit bootstrap

## Response: hours (numeric)
## Null Hypothesis: point
## # A tibble: 500,000 × 2
## # Groups:   replicate [1,000]
##    replicate hours
##        <int> <dbl>
##  1         1  54.6
##  2         1  58.6
##  3         1  28.6
##  4         1  38.6
##  5         1  86.6
##  6         1  38.6
##  7         1  25.6
##  8         1  38.6
##  9         1  48.6
## 10         1  38.6
## # ℹ 499,990 more rows
…
## Stichprobenverteilung -----
### Ermittlung mit calculate -----
set.seed(23) # für reproduzierbare Ergebnisse
gss %>%
  specify(response = hours) %>%
  hypothesize(null = "point", mu = E_hours) %>%
  generate(reps = 1000, type = "bootstrap") %>%
  calculate(stat = "mean") # je einen Durschnittswert für die 1000 Stichproben ermitteln

## Response: hours (numeric)
## Null Hypothesis: point
## # A tibble: 1,000 × 2
##    replicate  stat
##        <int> <dbl>
##  1         1  38.8
##  2         2  39.0
##  3         3  39.5
##  4         4  40.2
##  5         5  39.5
##  6         6  39.6
##  7         7  41.2
##  8         8  39.5
##  9         9  39.4
## 10        10  39.3
## # ℹ 990 more rows
…
