t-Tests
…
Deskriptive Statistik

## Annahme zum Erwartungswert ----
E_hours<-40 #Annahme über den "wahren" Erwartungswert der wöchentl. Arbeitszeit

## Modell spezifizieren und Annahmen treffen -----
tbl_gss %>%
  specify(response = hours) %>% # betrachtete Variable(n) festlegen
  hypothesize(null = "point", mu = E_hours) #Annahme treffen

## Response: hours (numeric)
## Null Hypothesis: point
## # A tibble: 500 × 1
##    hours
##    <dbl>
##  1    50
##  2    31
##  3    40
##  4    40
##  5    40
##  6    53
##  7    32
##  8    20
##  9    40
## 10    40
## # ℹ 490 more rows

Test mittels
Randomisierung/Resampling

## Zufallsstichproben erzeugen -----
set.seed(23) # für reproduzierbare Ergebnisse
tbl_gss %>%
  specify(response = hours) %>%
  hypothesize(null = "point", mu = E_hours) %>%
  generate(reps = 1000, type = "bootstrap")  # Zufallsstichproben mit bootstrap

## Response: hours (numeric)
## Null Hypothesis: point
## # A tibble: 500,000 × 2
## # Groups:   replicate [1,000]
##    replicate hours
##        <int> <dbl>
##  1         1  54.6
##  2         1  58.6
##  3         1  28.6
##  4         1  38.6
##  5         1  86.6
##  6         1  38.6
##  7         1  25.6
##  8         1  38.6
##  9         1  48.6
## 10         1  38.6
## # ℹ 499,990 more rows

## Stichprobenverteilung -----
### Ermittlung mit calculate -----
set.seed(23) # für reproduzierbare Ergebnisse
null_dist <- tbl_gss %>%  # speichern im Objekt null_dist
  specify(response = hours) %>%
  hypothesize(null = "point", mu = E_hours) %>%
  generate(reps = 1000, type = "bootstrap") %>%
  calculate(stat = "mean")

null_dist

## Response: hours (numeric)
## Null Hypothesis: point
## # A tibble: 1,000 × 2
##    replicate  stat
##        <int> <dbl>
##  1         1  38.8
##  2         2  39.0
##  3         3  39.5
##  4         4  40.2
##  5         5  39.5
##  6         6  39.6
##  7         7  41.2
##  8         8  39.5
##  9         9  39.4
## 10        10  39.3
## # ℹ 990 more rows
…
set.seed(23)
# generate the null distribution with randomization
null_dist_2_sample <- tbl_cities %>%
                          specify(income ~ metro_area) %>%
                          hypothesize(null = "independence") %>%
                          generate(reps = 1000, type = "permute") %>%
                          calculate(stat = "diff in means", order = c("Sacramento_ CA", "Cleveland_ OH"))
null_dist_2_sample

## Response: income (numeric)
## Explanatory: metro_area (factor)
## Null Hypothesis: independence
## # A tibble: 1,000 × 2
##    replicate   stat
##        <int>  <dbl>
##  1         1  1587.
##  2         2 -4155.
##  3         3 -2723.
##  4         4 -6663.
##  5         5 -1817.
##  6         6   128.
##  7         7  -768.
##  8         8 -1337.
##  9         9 -3406.
## 10        10 -3023.
## # ℹ 990 more rows
…
Test mittels
Randomisierung/Resampling

set.seed(23)
null_dist <- zinc_paired %>% 
   specify(response = diff) %>% 
   hypothesize(null = "paired independence") %>%
   generate(reps = 1000, type = "permute") %>%
   calculate(stat = "mean")
null_dist

## Response: diff (numeric)
## Null Hypothesis: paired independence
## # A tibble: 1,000 × 2
##    replicate      stat
##        <int>     <dbl>
##  1         1  0.0180  
##  2         2 -0.000600
##  3         3  0.00740 
##  4         4 -0.0312  
##  5         5  0.0108  
##  6         6  0.0168  
##  7         7 -0.00960 
##  8         8  0.0254  
##  9         9  0.0158  
## 10        10 -0.00380 
## # ℹ 990 more rows
…
